<?xml version="1.0" encoding="UTF-8" standalone="no"?>
<svg width="146px" height="34px" viewBox="0 0 146 34" version="1.1" xmlns="http://www.w3.org/2000/svg" xmlns:xlink="http://www.w3.org/1999/xlink">
    <!-- Generator: Sketch 3.6 (26304) - http://www.bohemiancoding.com/sketch -->
    <title>Group</title>
    <desc>Created with Sketch.</desc>
    <defs></defs>
    <g id="Page-1" stroke="none" stroke-width="1" fill="none" fill-rule="evenodd">
        <g id="Group" fill="#FFFFFF">
            <path d="M46.3441141,14.4444046 L65.5077258,14.4444046 C65.5077258,11.6993701 64.6276483,9.58862602 62.8683659,8.11345279 C61.1095199,6.63827955 58.9413963,5.90069294 56.3657406,5.90069294 C53.7892122,5.90069294 51.4744817,6.66901233 49.4228583,8.20565111 C47.3699258,9.7422899 46.3441141,11.8223012 46.3441141,14.4444046 L46.3441141,14.4444046 Z M72.5448554,19.8533731 L46.3441141,19.8533731 C46.5107921,22.2304679 47.6212519,24.1461443 49.6741843,25.6004022 C51.7258078,27.0550869 54.0723903,27.7824292 56.7113139,27.7824292 C60.8992088,27.7824292 64.0826722,26.4916527 66.2612677,23.9100995 L70.2824846,28.2126881 C66.6797081,31.860071 61.9887247,33.6831222 56.2082254,33.6831222 C51.5163694,33.6831222 47.5270046,32.1571545 44.2392584,29.1039386 C40.9502031,26.0515764 39.3065482,21.953873 39.3065482,16.8108283 C39.3065482,11.6690642 40.9816189,7.58117818 44.3335056,4.5484508 C47.6836471,1.51657711 51.6315605,0 56.1768097,0 C60.7216225,0 64.5857606,1.34285156 67.7696603,4.02599362 C70.952251,6.71041621 72.5448554,10.4085935 72.5448554,15.1205256 L72.5448554,19.8533731 Z" id="Fill-4"></path>
            <path d="M7.03756589,14.4444046 L26.2011776,14.4444046 C26.2011776,11.6993701 25.3211001,9.58862602 23.5618177,8.11345279 C21.8029717,6.63827955 19.6348481,5.90069294 17.0591924,5.90069294 C14.482664,5.90069294 12.1679335,6.66901233 10.1163101,8.20565111 C8.06337762,9.7422899 7.03756589,11.8223012 7.03756589,14.4444046 L7.03756589,14.4444046 Z M33.2383072,19.8533731 L7.03756589,19.8533731 C7.20424393,22.2304679 8.31470368,24.1461443 10.3676361,25.6004022 C12.4192596,27.0550869 14.7658421,27.7824292 17.4047657,27.7824292 C21.5926606,27.7824292 24.776124,26.4916527 26.9547195,23.9100995 L30.9759364,28.2126881 C27.3731599,31.860071 22.6821765,33.6831222 16.9016772,33.6831222 C12.2098212,33.6831222 8.22045641,32.1571545 4.93271017,29.1039386 C1.64365495,26.0515764 0,21.953873 0,16.8108283 C0,11.6690642 1.67507071,7.58117818 5.02695744,4.5484508 C8.37709886,1.51657711 12.3250123,0 16.8702615,0 C21.4150743,0 25.2792124,1.34285156 28.4631121,4.02599362 C31.6457029,6.71041621 33.2383072,10.4085935 33.2383072,15.1205256 L33.2383072,19.8533731 Z" id="Fill-4"></path>
            <path d="M78.9962478,6.77248781 L78.9962478,0.871794872 L105.134158,0.871794872 L105.134158,7.07981556 L86.3479713,27.4863786 L106.139462,27.4863786 L106.139462,33.4485371 L77.7396175,33.4485371 L77.7396175,26.748792 L96.0235881,6.77248781 L78.9962478,6.77248781 Z" id="Fill-7"></path>
            <path d="M118.842859,14.4444046 L138.00647,14.4444046 C138.00647,11.6993701 137.126393,9.58862602 135.36711,8.11345279 C133.608264,6.63827955 131.440141,5.90069294 128.864485,5.90069294 C126.287957,5.90069294 123.973226,6.66901233 121.921603,8.20565111 C119.86867,9.7422899 118.842859,11.8223012 118.842859,14.4444046 L118.842859,14.4444046 Z M145.0436,19.8533731 L118.842859,19.8533731 C119.009537,22.2304679 120.119996,24.1461443 122.172929,25.6004022 C124.224552,27.0550869 126.571135,27.7824292 129.210058,27.7824292 C133.397953,27.7824292 136.581417,26.4916527 138.760012,23.9100995 L142.781229,28.2126881 C139.178453,31.860071 134.487469,33.6831222 128.70697,33.6831222 C124.015114,33.6831222 120.025749,32.1571545 116.738003,29.1039386 C113.448948,26.0515764 111.805293,21.953873 111.805293,16.8108283 C111.805293,11.6690642 113.480363,7.58117818 116.83225,4.5484508 C120.182392,1.51657711 124.130305,0 128.675554,0 C133.220367,0 137.084505,1.34285156 140.268405,4.02599362 C143.450995,6.71041621 145.0436,10.4085935 145.0436,15.1205256 L145.0436,19.8533731 Z" id="Fill-9"></path>
        </g>
    </g>
</svg>