<?xml version="1.0" encoding="UTF-8" standalone="no"?>
<svg width="128px" height="128px" viewBox="0 0 128 128" version="1.1" xmlns="http://www.w3.org/2000/svg" xmlns:xlink="http://www.w3.org/1999/xlink" xmlns:sketch="http://www.bohemiancoding.com/sketch/ns">
    <!-- Generator: Sketch 3.4.2 (15855) - http://www.bohemiancoding.com/sketch -->
    <title>no_reports copy</title>
    <desc>Created with Sketch.</desc>
    <defs>
        <path id="path-1" d="M60.6315789,121.263158 C94.1174754,121.263158 121.263158,94.1174754 121.263158,60.6315789 C121.263158,27.1456825 94.1174754,0 60.6315789,0 C27.1456825,0 0,27.1456825 0,60.6315789 C0,94.1174754 27.1456825,121.263158 60.6315789,121.263158 Z"></path>
    </defs>
    <g id="Page-1" stroke="none" stroke-width="1" fill="none" fill-rule="evenodd" sketch:type="MSPage">
        <g id="Desktop-HD-Copy-9" sketch:type="MSArtboardGroup" transform="translate(-656.000000, -237.000000)">
            <g id="no_tags" sketch:type="MSLayerGroup" transform="translate(656.000000, 237.000000)">
                <g id="Oval-84-+-1446207952_editor_document_file_2">
                    <circle id="Oval-84" fill="#16263D" sketch:type="MSShapeGroup" cx="64" cy="64" r="64"></circle>
                    <g id="1446207952_editor_document_file_2" transform="translate(3.368421, 3.368421)">
                        <mask id="mask-2" sketch:name="Mask" fill="white">
                            <use xlink:href="#path-1"></use>
                        </mask>
                        <use id="Mask" fill="#096EBD" sketch:type="MSShapeGroup" xlink:href="#path-1"></use>
                    </g>
                </g>
            </g>
            <path d="M672,300 C672,293.894301 685.247299,282.656469 685.247299,282.656469 C685.663004,282.293911 686.447243,282 687.00417,282 L757.99583,282 C758.550418,282 759,282.455173 759,283.000419 L759,316.999581 C759,317.552097 758.552757,318 757.99583,318 L687.00417,318 C686.449582,318 685.667739,317.692824 685.267011,317.317331 C685.267011,317.317331 672,305.227355 672,300 Z M688,302 C689.104569,302 690,301.104569 690,300 C690,298.895431 689.104569,298 688,298 C686.895431,298 686,298.895431 686,300 C686,301.104569 686.895431,302 688,302 Z" id="Rectangle-13" stroke="#16263D" stroke-width="4" fill="#FFFFFF" sketch:type="MSShapeGroup"></path>
        </g>
    </g>
</svg>