<?xml version="1.0" encoding="UTF-8" standalone="no"?>
<svg width="128px" height="128px" viewBox="0 0 128 128" version="1.1" xmlns="http://www.w3.org/2000/svg" xmlns:xlink="http://www.w3.org/1999/xlink" xmlns:sketch="http://www.bohemiancoding.com/sketch/ns">
    <!-- Generator: Sketch 3.4.2 (15855) - http://www.bohemiancoding.com/sketch -->
    <title>no_search_results</title>
    <desc>Created with Sketch.</desc>
    <defs>
        <path id="path-1" d="M60.6315789,121.263158 C94.1174754,121.263158 121.263158,94.1174754 121.263158,60.6315789 C121.263158,27.1456825 94.1174754,0 60.6315789,0 C27.1456825,0 0,27.1456825 0,60.6315789 C0,94.1174754 27.1456825,121.263158 60.6315789,121.263158 Z"></path>
    </defs>
    <g id="Page-1" stroke="none" stroke-width="1" fill="none" fill-rule="evenodd" sketch:type="MSPage">
        <g id="Desktop-HD-Copy" sketch:type="MSArtboardGroup" transform="translate(-656.000000, -237.000000)">
            <g id="Oval-84-+-1446207952_editor_document_file_2" sketch:type="MSLayerGroup" transform="translate(656.000000, 237.000000)">
                <circle id="Oval-84" fill="#16263D" sketch:type="MSShapeGroup" cx="64" cy="64" r="64"></circle>
                <g id="1446207952_editor_document_file_2" transform="translate(3.368421, 3.368421)">
                    <mask id="mask-2" sketch:name="Mask" fill="white">
                        <use xlink:href="#path-1"></use>
                    </mask>
                    <use id="Mask" fill="#096EBD" sketch:type="MSShapeGroup" xlink:href="#path-1"></use>
                </g>
            </g>
            <g id="Oval-7-+-Rectangle-1-+-?" sketch:type="MSLayerGroup" transform="translate(691.000000, 273.000000)">
                <circle id="Oval-7" stroke="#16263D" stroke-width="4" fill="#FFFFFF" sketch:type="MSShapeGroup" cx="22.5" cy="22.5" r="22.5"></circle>
                <rect id="Rectangle-1" fill="#16263D" sketch:type="MSShapeGroup" transform="translate(42.310660, 45.310660) rotate(-315.000000) translate(-42.310660, -45.310660) " x="30.7291847" y="42.3106602" width="23.1629509" height="6" rx="5.5"></rect>
            </g>
        </g>
    </g>
</svg>